{
  "web": {
    "client_id": "1027354680506-uadk3kbkdalqq2ge8ovum27tfu93o6ge.apps.googleusercontent.com",
    "project_id": "albumagic-193522",
    "auth_uri": "https://accounts.google.com/o/oauth2/auth",
    "token_uri": "https://accounts.google.com/o/oauth2/token",
    "auth_provider_x509_cert_url": "https://www.googleapis.com/oauth2/v1/certs",
    "client_secret": "5GSlxOQBvvM-t8hK3qfhYlY9",
    "redirect_uris": [
      "http://localhost/tareklancer/work/albumagic/google_redirect",
      "http://tareklancer.com"
    ],
    "javascript_origins": [
      "http://localhost",
      "http://tareklancer.com"
    ]
  }
}